{
        "aps":
        {
                "type": "http://owncloud.org/owncloudglobal/1.0"
        },
        "LDAPIP": "192.168.1.1",
        "LDAPUSER": "admin",
        "LDAPPASS": "password",
        "dc1": "owncloud",
        "dc2": "com",
        "owncloudhttp": "",
        "storagelocation": "/data",
        "linuxurl": "",
        "winurl": "",
        "macurl": "",
}
