{
    "aps": {
        "type": "USERS_TYPE"
    },
    "samples":
    {
        "aps": {
            "id": "profilevalue"
        }
    },
    "tenant":
    {
        "aps": {
            "id": "tenantapsid"
        }
    },
    "user":
    {
        "aps": {
            "id": "userid"
        }
    }
}
